{
  "lists": [
    {
      "name": "Пользователи. Авторизация",
      "teg": "#авторизация #пользователи #аутентификация ",
      "status": "В разработке",
      "lenguage": "Java",
      "connectService": "Личный кабинет, каталог",
      "responsible": "name1",
      "document": "https://docs.google.com/documents",
      "repozit": "https://bitbucket.org/product/",
      "content": "Ljk 3 words ",
      "id": 1
    },
    {
      "name": "Пользователи. Авторизация",
      "status": "В разработке",
      "teg": "#авторизация #пользователи #аутентификация",
      "lenguage": "Java",
      "connectService": "Личный кабинет, каталог",
      "responsible": "name1",
      "document": "https://docs.google.com/document",
      "repozit": "https://bitbucket.org/product/",
      "content": "В данном микросервисе аыратдытапрыиыиыаирыаыдалыпры",
      "id": 2
    },
    {
      "name": "Пользователи. Авторизация",
      "status": "Запущен",
      "teg": "#авторизация #пользователи #аутентификация",
      "lenguage": "PHP",
      "connectService": "Личный кабинет, каталог",
      "responsible": "name2",
      "document": "https://docs.google.com/document",
      "repozit": "https://bitbucket.org/product/",
      "content": "В данном микросервисе аыратдытапрыиыиыаирыаыдалыпры",
      "id": 3
    }
  ],
  "profile": {
    "name": "typecode"
  }
}